<?xml version="1.0" encoding="UTF-8"?>
<!-- 2017-06-04 23:57:48 Generated by QCAD SVG Exporter -->
<svg width="393.833602094508mm" height="178.7355950923446mm" viewBox="1.3961035052251107 -178.73559509234437 393.833602094508 178.7355950923446" version="1.1" xmlns="http://www.w3.org/2000/svg" style="stroke-linecap:round;stroke-linejoin:round;fill:none">
    <g transform="scale(1,-1)">
        <!-- Block Reference: face / entities: 12 -->
        <g>
            <!-- Line -->
            <path d="M253.00465089862567,56.982777670414706 L273.7553208463547,87.2532202955303 " style="stroke:#000000;stroke-width:0.25;"/>
            <!-- Line -->
            <path d="M253.00465089862567,56.98277767041473 L273.7553208463547,87.25322029553033 " style="stroke:#000000;stroke-width:0.25;"/>
            <!-- Line -->
            <path d="M253.00465089862567,56.98277767041473 L237.1650135753408,90.08860630325219 " style="stroke:#000000;stroke-width:0.25;"/>
            <!-- Line -->
            <path d="M273.7553208463547,87.2532202955303 L237.1650135753408,90.08860630325219 " style="stroke:#000000;stroke-width:0.25;"/>
            <!-- Line -->
            <path d="M237.1650135753408,90.08860630325219 L253.00465089862567,56.982777670414706 " style="stroke:#000000;stroke-width:0.25;"/>
            <!-- Line -->
            <path d="M273.75532084635466,87.25322029553023 L285.4587837866916,56.98277767041469 " style="stroke:#000000;stroke-width:0.25;"/>
            <!-- Line -->
            <path d="M237.1650135753409,90.08860630325213 L257.5282544023217,115.35932383439132 " style="stroke:#000000;stroke-width:0.25;"/>
            <!-- Line -->
            <path d="M237.1650135753409,90.08860630325213 L220.93794713130802,61.98250276439093 " style="stroke:#000000;stroke-width:0.25;"/>
            <!-- Line -->
            <path d="M285.4587837866916,56.98277767041469 L253.00465089862573,56.98277767041477 " style="stroke:#000000;stroke-width:0.25;"/>
            <!-- Line -->
            <path d="M220.93794713130802,61.98250276439093 L253.00465089862573,56.98277767041477 " style="stroke:#000000;stroke-width:0.25;"/>
            <!-- Line -->
            <path d="M257.5282544023217,115.35932383439132 L273.75532084635466,87.25322029553027 " style="stroke:#000000;stroke-width:0.25;"/>
            <!-- Line -->
            <path d="M237.1650135753409,90.08860630325213 L273.75532084635466,87.25322029553026 " style="stroke:#000000;stroke-width:0.25;"/>
        </g>
        <!-- Block Reference: face / entities: 12 -->
        <g>
            <!-- Line -->
            <path d="M216.4143436276119,120.35904892836776 L237.16501357534105,150.6294915534833 " style="stroke:#000000;stroke-width:0.25;"/>
            <!-- Line -->
            <path d="M216.4143436276119,120.35904892836777 L237.16501357534108,150.6294915534833 " style="stroke:#000000;stroke-width:0.25;"/>
            <!-- Line -->
            <path d="M216.4143436276119,120.35904892836777 L200.57470630432718,153.4648775612053 " style="stroke:#000000;stroke-width:0.25;"/>
            <!-- Line -->
            <path d="M237.16501357534105,150.6294915534833 L200.57470630432718,153.4648775612053 " style="stroke:#000000;stroke-width:0.25;"/>
            <!-- Line -->
            <path d="M200.57470630432718,153.4648775612053 L216.4143436276119,120.35904892836776 " style="stroke:#000000;stroke-width:0.25;"/>
            <!-- Line -->
            <path d="M237.16501357534102,150.6294915534832 L248.8684765156778,120.35904892836773 " style="stroke:#000000;stroke-width:0.25;"/>
            <!-- Line -->
            <path d="M200.5747063043272,153.4648775612052 L220.93794713130805,178.73559509234434 " style="stroke:#000000;stroke-width:0.25;"/>
            <!-- Line -->
            <path d="M200.5747063043272,153.4648775612052 L184.34763986029427,125.35877402234404 " style="stroke:#000000;stroke-width:0.25;"/>
            <!-- Line -->
            <path d="M248.8684765156778,120.35904892836773 L216.41434362761197,120.35904892836783 " style="stroke:#000000;stroke-width:0.25;"/>
            <!-- Line -->
            <path d="M184.34763986029427,125.35877402234404 L216.41434362761197,120.35904892836783 " style="stroke:#000000;stroke-width:0.25;"/>
            <!-- Line -->
            <path d="M220.93794713130805,178.73559509234434 L237.16501357534105,150.62949155348323 " style="stroke:#000000;stroke-width:0.25;"/>
            <!-- Line -->
            <path d="M200.5747063043272,153.4648775612052 L237.16501357534102,150.6294915534832 " style="stroke:#000000;stroke-width:0.25;"/>
        </g>
        <!-- Block Reference: face / entities: 12 -->
        <g>
            <!-- Line -->
            <path d="M310.3456281173685,90.08860630325229 L289.59495816963926,120.35904892836777 " style="stroke:#000000;stroke-width:0.25;"/>
            <!-- Line -->
            <path d="M310.3456281173685,90.0886063032523 L289.59495816963926,120.35904892836778 " style="stroke:#000000;stroke-width:0.25;"/>
            <!-- Line -->
            <path d="M310.3456281173685,90.0886063032523 L273.75532084635455,87.25322029553026 " style="stroke:#000000;stroke-width:0.25;"/>
            <!-- Line -->
            <path d="M289.59495816963926,120.35904892836777 L273.75532084635455,87.25322029553026 " style="stroke:#000000;stroke-width:0.25;"/>
            <!-- Line -->
            <path d="M273.75532084635455,87.25322029553026 L310.3456281173685,90.08860630325229 " style="stroke:#000000;stroke-width:0.25;"/>
            <!-- Line -->
            <path d="M289.5949581696393,120.35904892836768 L322.04909105770537,120.35904892836767 " style="stroke:#000000;stroke-width:0.25;"/>
            <!-- Line -->
            <path d="M273.75532084635466,87.25322029553026 L257.52825440232164,115.35932383439135 " style="stroke:#000000;stroke-width:0.25;"/>
            <!-- Line -->
            <path d="M273.75532084635466,87.25322029553026 L294.11856167333565,61.98250276439117 " style="stroke:#000000;stroke-width:0.25;"/>
            <!-- Line -->
            <path d="M322.04909105770537,120.35904892836767 L310.34562811736845,90.08860630325236 " style="stroke:#000000;stroke-width:0.25;"/>
            <!-- Line -->
            <path d="M294.11856167333565,61.98250276439117 L310.34562811736845,90.08860630325236 " style="stroke:#000000;stroke-width:0.25;"/>
            <!-- Line -->
            <path d="M257.52825440232164,115.35932383439135 L289.5949581696393,120.35904892836771 " style="stroke:#000000;stroke-width:0.25;"/>
            <!-- Line -->
            <path d="M273.75532084635466,87.25322029553026 L289.5949581696393,120.35904892836771 " style="stroke:#000000;stroke-width:0.25;"/>
        </g>
        <!-- Block Reference: face / entities: 12 -->
        <g>
            <!-- Line -->
            <path d="M301.01899522777376,30.27044262511543 L336.7356910778442,21.831980824907752 " style="stroke:#000000;stroke-width:0.25;"/>
            <!-- Line -->
            <path d="M301.01899522777376,30.270442625115425 L336.7356910778442,21.831980824907742 " style="stroke:#000000;stroke-width:0.25;"/>
            <!-- Line -->
            <path d="M301.01899522777376,30.270442625115425 L326.18526544065344,56.98277767041478 " style="stroke:#000000;stroke-width:0.25;"/>
            <!-- Line -->
            <path d="M336.7356910778442,21.831980824907752 L326.18526544065344,56.98277767041478 " style="stroke:#000000;stroke-width:0.25;"/>
            <!-- Line -->
            <path d="M326.18526544065344,56.98277767041478 L301.01899522777376,30.27044262511543 " style="stroke:#000000;stroke-width:0.25;"/>
            <!-- Line -->
            <path d="M336.7356910778441,21.831980824907767 L312.7224581681105,1.7763568394002505e-14 " style="stroke:#000000;stroke-width:0.25;"/>
            <!-- Line -->
            <path d="M326.1852654406533,56.9827776704147 L357.0989319048249,47.10269835604694 " style="stroke:#000000;stroke-width:0.25;"/>
            <!-- Line -->
            <path d="M326.1852654406533,56.9827776704147 L294.1185616733356,61.982502764390894 " style="stroke:#000000;stroke-width:0.25;"/>
            <!-- Line -->
            <path d="M312.7224581681105,1.7763568394002505e-14 L301.0189952277738,30.27044262511541 " style="stroke:#000000;stroke-width:0.25;"/>
            <!-- Line -->
            <path d="M294.1185616733356,61.982502764390894 L301.0189952277738,30.27044262511541 " style="stroke:#000000;stroke-width:0.25;"/>
            <!-- Line -->
            <path d="M357.0989319048249,47.10269835604694 L336.7356910778441,21.83198082490776 " style="stroke:#000000;stroke-width:0.25;"/>
            <!-- Line -->
            <path d="M326.1852654406533,56.982777670414706 L336.7356910778441,21.83198082490776 " style="stroke:#000000;stroke-width:0.25;"/>
        </g>
        <!-- Block Reference: face / entities: 12 -->
        <g>
            <!-- Line -->
            <path d="M326.1852654406533,56.98277767041469 L346.9359353883824,87.25322029553028 " style="stroke:#000000;stroke-width:0.25;"/>
            <!-- Line -->
            <path d="M326.1852654406533,56.98277767041471 L346.9359353883824,87.2532202955303 " style="stroke:#000000;stroke-width:0.25;"/>
            <!-- Line -->
            <path d="M326.1852654406533,56.98277767041471 L310.34562811736845,90.08860630325218 " style="stroke:#000000;stroke-width:0.25;"/>
            <!-- Line -->
            <path d="M346.9359353883824,87.25322029553028 L310.34562811736845,90.08860630325218 " style="stroke:#000000;stroke-width:0.25;"/>
            <!-- Line -->
            <path d="M310.34562811736845,90.08860630325218 L326.1852654406533,56.98277767041469 " style="stroke:#000000;stroke-width:0.25;"/>
            <!-- Line -->
            <path d="M346.9359353883823,87.25322029553021 L358.6393983287192,56.98277767041468 " style="stroke:#000000;stroke-width:0.25;"/>
            <!-- Line -->
            <path d="M310.34562811736856,90.0886063032521 L330.7088689443494,115.35932383439129 " style="stroke:#000000;stroke-width:0.25;"/>
            <!-- Line -->
            <path d="M310.34562811736856,90.0886063032521 L294.11856167333565,61.982502764390915 " style="stroke:#000000;stroke-width:0.25;"/>
            <!-- Line -->
            <path d="M358.6393983287192,56.98277767041468 L326.1852654406534,56.982777670414755 " style="stroke:#000000;stroke-width:0.25;"/>
            <!-- Line -->
            <path d="M294.11856167333565,61.982502764390915 L326.1852654406534,56.982777670414755 " style="stroke:#000000;stroke-width:0.25;"/>
            <!-- Line -->
            <path d="M330.7088689443494,115.35932383439129 L346.93593538838235,87.25322029553024 " style="stroke:#000000;stroke-width:0.25;"/>
            <!-- Line -->
            <path d="M310.34562811736856,90.08860630325212 L346.93593538838235,87.25322029553024 " style="stroke:#000000;stroke-width:0.25;"/>
        </g>
        <!-- Block Reference: face / entities: 12 -->
        <g>
            <!-- Line -->
            <path d="M289.59495816963954,120.35904892836774 L310.3456281173687,150.62949155348326 " style="stroke:#000000;stroke-width:0.25;"/>
            <!-- Line -->
            <path d="M289.59495816963954,120.35904892836776 L310.34562811736873,150.62949155348326 " style="stroke:#000000;stroke-width:0.25;"/>
            <!-- Line -->
            <path d="M289.59495816963954,120.35904892836776 L273.7553208463548,153.4648775612053 " style="stroke:#000000;stroke-width:0.25;"/>
            <!-- Line -->
            <path d="M310.3456281173687,150.62949155348326 L273.7553208463548,153.4648775612053 " style="stroke:#000000;stroke-width:0.25;"/>
            <!-- Line -->
            <path d="M273.7553208463548,153.4648775612053 L289.59495816963954,120.35904892836774 " style="stroke:#000000;stroke-width:0.25;"/>
            <!-- Line -->
            <path d="M310.3456281173686,150.62949155348318 L322.0490910577054,120.35904892836771 " style="stroke:#000000;stroke-width:0.25;"/>
            <!-- Line -->
            <path d="M273.75532084635483,153.46487756120518 L294.1185616733357,178.73559509234434 " style="stroke:#000000;stroke-width:0.25;"/>
            <!-- Line -->
            <path d="M273.75532084635483,153.46487756120518 L257.5282544023219,125.35877402234402 " style="stroke:#000000;stroke-width:0.25;"/>
            <!-- Line -->
            <path d="M322.0490910577054,120.35904892836771 L289.5949581696396,120.35904892836781 " style="stroke:#000000;stroke-width:0.25;"/>
            <!-- Line -->
            <path d="M257.5282544023219,125.35877402234402 L289.5949581696396,120.35904892836781 " style="stroke:#000000;stroke-width:0.25;"/>
            <!-- Line -->
            <path d="M294.1185616733357,178.73559509234434 L310.3456281173687,150.6294915534832 " style="stroke:#000000;stroke-width:0.25;"/>
            <!-- Line -->
            <path d="M273.75532084635483,153.46487756120518 L310.3456281173687,150.6294915534832 " style="stroke:#000000;stroke-width:0.25;"/>
        </g>
        <!-- Block Reference: face / entities: 12 -->
        <g>
            <!-- Line -->
            <path d="M383.5262426593962,90.08860630325239 L362.77557271166694,120.35904892836786 " style="stroke:#000000;stroke-width:0.25;"/>
            <!-- Line -->
            <path d="M383.5262426593962,90.0886063032524 L362.77557271166694,120.35904892836788 " style="stroke:#000000;stroke-width:0.25;"/>
            <!-- Line -->
            <path d="M383.5262426593962,90.0886063032524 L346.93593538838223,87.25322029553035 " style="stroke:#000000;stroke-width:0.25;"/>
            <!-- Line -->
            <path d="M362.77557271166694,120.35904892836786 L346.93593538838223,87.25322029553035 " style="stroke:#000000;stroke-width:0.25;"/>
            <!-- Line -->
            <path d="M346.93593538838223,87.25322029553035 L383.5262426593962,90.08860630325239 " style="stroke:#000000;stroke-width:0.25;"/>
            <!-- Line -->
            <path d="M362.775572711667,120.35904892836778 L395.22970559973305,120.35904892836777 " style="stroke:#000000;stroke-width:0.25;"/>
            <!-- Line -->
            <path d="M346.93593538838235,87.25322029553035 L330.7088689443493,115.35932383439146 " style="stroke:#000000;stroke-width:0.25;"/>
            <!-- Line -->
            <path d="M346.93593538838235,87.25322029553035 L367.29917621536333,61.98250276439127 " style="stroke:#000000;stroke-width:0.25;"/>
            <!-- Line -->
            <path d="M395.22970559973305,120.35904892836777 L383.52624265939613,90.08860630325246 " style="stroke:#000000;stroke-width:0.25;"/>
            <!-- Line -->
            <path d="M367.29917621536333,61.98250276439127 L383.52624265939613,90.08860630325246 " style="stroke:#000000;stroke-width:0.25;"/>
            <!-- Line -->
            <path d="M330.7088689443493,115.35932383439146 L362.775572711667,120.35904892836783 " style="stroke:#000000;stroke-width:0.25;"/>
            <!-- Line -->
            <path d="M346.93593538838235,87.25322029553035 L362.775572711667,120.35904892836781 " style="stroke:#000000;stroke-width:0.25;"/>
        </g>
        <!-- Block Reference: face / entities: 12 -->
        <g>
            <!-- Line -->
            <path d="M81.47715160169085,30.270442625115454 L117.19384745176126,21.831980824907777 " style="stroke:#000000;stroke-width:0.25;"/>
            <!-- Line -->
            <path d="M81.47715160169086,30.27044262511545 L117.19384745176126,21.831980824907767 " style="stroke:#000000;stroke-width:0.25;"/>
            <!-- Line -->
            <path d="M81.47715160169086,30.27044262511545 L106.6434218145705,56.9827776704148 " style="stroke:#000000;stroke-width:0.25;"/>
            <!-- Line -->
            <path d="M117.19384745176126,21.831980824907777 L106.6434218145705,56.9827776704148 " style="stroke:#000000;stroke-width:0.25;"/>
            <!-- Line -->
            <path d="M106.6434218145705,56.9827776704148 L81.47715160169085,30.270442625115454 " style="stroke:#000000;stroke-width:0.25;"/>
            <!-- Line -->
            <path d="M117.19384745176116,21.831980824907795 L93.1806145420276,4.263256414560601e-14 " style="stroke:#000000;stroke-width:0.25;"/>
            <!-- Line -->
            <path d="M106.64342181457043,56.98277767041472 L137.55708827874201,47.102698356046965 " style="stroke:#000000;stroke-width:0.25;"/>
            <!-- Line -->
            <path d="M106.64342181457043,56.98277767041472 L74.57671804725271,61.982502764390915 " style="stroke:#000000;stroke-width:0.25;"/>
            <!-- Line -->
            <path d="M93.1806145420276,4.263256414560601e-14 L81.47715160169093,30.270442625115436 " style="stroke:#000000;stroke-width:0.25;"/>
            <!-- Line -->
            <path d="M74.57671804725271,61.982502764390915 L81.47715160169093,30.270442625115436 " style="stroke:#000000;stroke-width:0.25;"/>
            <!-- Line -->
            <path d="M137.55708827874201,47.102698356046965 L117.1938474517612,21.83198082490778 " style="stroke:#000000;stroke-width:0.25;"/>
            <!-- Line -->
            <path d="M106.64342181457044,56.982777670414734 L117.19384745176119,21.831980824907788 " style="stroke:#000000;stroke-width:0.25;"/>
        </g>
        <!-- Block Reference: face / entities: 12 -->
        <g>
            <!-- Line -->
            <path d="M106.64342181457044,56.98277767041475 L127.39409176229951,87.25322029553034 " style="stroke:#000000;stroke-width:0.25;"/>
            <!-- Line -->
            <path d="M106.64342181457046,56.98277767041477 L127.3940917622995,87.25322029553035 " style="stroke:#000000;stroke-width:0.25;"/>
            <!-- Line -->
            <path d="M106.64342181457046,56.98277767041477 L90.80378449128557,90.08860630325223 " style="stroke:#000000;stroke-width:0.25;"/>
            <!-- Line -->
            <path d="M127.39409176229951,87.25322029553034 L90.80378449128557,90.08860630325223 " style="stroke:#000000;stroke-width:0.25;"/>
            <!-- Line -->
            <path d="M90.80378449128557,90.08860630325223 L106.64342181457044,56.98277767041475 " style="stroke:#000000;stroke-width:0.25;"/>
            <!-- Line -->
            <path d="M127.39409176229944,87.25322029553027 L139.09755470263633,56.982777670414734 " style="stroke:#000000;stroke-width:0.25;"/>
            <!-- Line -->
            <path d="M90.80378449128567,90.08860630325216 L111.16702531826647,115.35932383439135 " style="stroke:#000000;stroke-width:0.25;"/>
            <!-- Line -->
            <path d="M90.80378449128567,90.08860630325216 L74.5767180472528,61.98250276439097 " style="stroke:#000000;stroke-width:0.25;"/>
            <!-- Line -->
            <path d="M139.09755470263633,56.982777670414734 L106.64342181457049,56.98277767041481 " style="stroke:#000000;stroke-width:0.25;"/>
            <!-- Line -->
            <path d="M74.5767180472528,61.98250276439097 L106.64342181457049,56.98277767041481 " style="stroke:#000000;stroke-width:0.25;"/>
            <!-- Line -->
            <path d="M111.16702531826647,115.35932383439135 L127.39409176229945,87.2532202955303 " style="stroke:#000000;stroke-width:0.25;"/>
            <!-- Line -->
            <path d="M90.80378449128567,90.08860630325218 L127.39409176229944,87.2532202955303 " style="stroke:#000000;stroke-width:0.25;"/>
        </g>
        <!-- Block Reference: face / entities: 12 -->
        <g>
            <!-- Line -->
            <path d="M70.05311454355667,120.3590489283675 L90.80378449128582,150.62949155348304 " style="stroke:#000000;stroke-width:0.25;"/>
            <!-- Line -->
            <path d="M70.05311454355669,120.35904892836751 L90.80378449128584,150.62949155348304 " style="stroke:#000000;stroke-width:0.25;"/>
            <!-- Line -->
            <path d="M70.05311454355669,120.35904892836751 L54.213477220271926,153.46487756120504 " style="stroke:#000000;stroke-width:0.25;"/>
            <!-- Line -->
            <path d="M90.80378449128582,150.62949155348304 L54.213477220271926,153.46487756120504 " style="stroke:#000000;stroke-width:0.25;"/>
            <!-- Line -->
            <path d="M54.213477220271926,153.46487756120504 L70.05311454355667,120.3590489283675 " style="stroke:#000000;stroke-width:0.25;"/>
            <!-- Line -->
            <path d="M90.80378449128577,150.62949155348295 L102.50724743162256,120.35904892836747 " style="stroke:#000000;stroke-width:0.25;"/>
            <!-- Line -->
            <path d="M54.21347722027197,153.46487756120496 L74.57671804725283,178.7355950923441 " style="stroke:#000000;stroke-width:0.25;"/>
            <!-- Line -->
            <path d="M54.21347722027197,153.46487756120496 L37.98641077623903,125.35877402234378 " style="stroke:#000000;stroke-width:0.25;"/>
            <!-- Line -->
            <path d="M102.50724743162256,120.35904892836747 L70.05311454355672,120.35904892836757 " style="stroke:#000000;stroke-width:0.25;"/>
            <!-- Line -->
            <path d="M37.98641077623903,125.35877402234378 L70.05311454355672,120.35904892836757 " style="stroke:#000000;stroke-width:0.25;"/>
            <!-- Line -->
            <path d="M74.57671804725283,178.7355950923441 L90.8037844912858,150.62949155348298 " style="stroke:#000000;stroke-width:0.25;"/>
            <!-- Line -->
            <path d="M54.21347722027197,153.46487756120496 L90.8037844912858,150.62949155348298 " style="stroke:#000000;stroke-width:0.25;"/>
        </g>
        <!-- Block Reference: face / entities: 12 -->
        <g>
            <!-- Line -->
            <path d="M163.9843990333133,90.08860630325213 L143.2337290855841,120.3590489283676 " style="stroke:#000000;stroke-width:0.25;"/>
            <!-- Line -->
            <path d="M163.9843990333133,90.08860630325215 L143.2337290855841,120.35904892836763 " style="stroke:#000000;stroke-width:0.25;"/>
            <!-- Line -->
            <path d="M163.9843990333133,90.08860630325215 L127.39409176229938,87.2532202955301 " style="stroke:#000000;stroke-width:0.25;"/>
            <!-- Line -->
            <path d="M143.2337290855841,120.3590489283676 L127.39409176229938,87.2532202955301 " style="stroke:#000000;stroke-width:0.25;"/>
            <!-- Line -->
            <path d="M127.39409176229938,87.2532202955301 L163.9843990333133,90.08860630325213 " style="stroke:#000000;stroke-width:0.25;"/>
            <!-- Line -->
            <path d="M143.23372908558414,120.35904892836753 L175.68786197365014,120.35904892836751 " style="stroke:#000000;stroke-width:0.25;"/>
            <!-- Line -->
            <path d="M127.39409176229947,87.2532202955301 L111.16702531826644,115.3593238343912 " style="stroke:#000000;stroke-width:0.25;"/>
            <!-- Line -->
            <path d="M127.39409176229947,87.2532202955301 L147.75733258928042,61.982502764391015 " style="stroke:#000000;stroke-width:0.25;"/>
            <!-- Line -->
            <path d="M175.68786197365014,120.35904892836751 L163.98439903331325,90.0886063032522 " style="stroke:#000000;stroke-width:0.25;"/>
            <!-- Line -->
            <path d="M147.75733258928042,61.982502764391015 L163.98439903331325,90.0886063032522 " style="stroke:#000000;stroke-width:0.25;"/>
            <!-- Line -->
            <path d="M111.16702531826644,115.3593238343912 L143.23372908558412,120.35904892836757 " style="stroke:#000000;stroke-width:0.25;"/>
            <!-- Line -->
            <path d="M127.39409176229947,87.2532202955301 L143.23372908558412,120.35904892836756 " style="stroke:#000000;stroke-width:0.25;"/>
        </g>
        <!-- Block Reference: face / entities: 12 -->
        <g>
            <!-- Line -->
            <path d="M154.65776614371853,30.270442625115596 L190.37446199378894,21.83198082490792 " style="stroke:#000000;stroke-width:0.25;"/>
            <!-- Line -->
            <path d="M154.65776614371856,30.270442625115592 L190.37446199378894,21.83198082490791 " style="stroke:#000000;stroke-width:0.25;"/>
            <!-- Line -->
            <path d="M154.65776614371856,30.270442625115592 L179.82403635659819,56.98277767041494 " style="stroke:#000000;stroke-width:0.25;"/>
            <!-- Line -->
            <path d="M190.37446199378894,21.83198082490792 L179.82403635659819,56.98277767041494 " style="stroke:#000000;stroke-width:0.25;"/>
            <!-- Line -->
            <path d="M179.82403635659819,56.98277767041494 L154.65776614371853,30.270442625115596 " style="stroke:#000000;stroke-width:0.25;"/>
            <!-- Line -->
            <path d="M190.37446199378883,21.831980824907937 L166.36122908405528,1.8474111129762605e-13 " style="stroke:#000000;stroke-width:0.25;"/>
            <!-- Line -->
            <path d="M179.82403635659813,56.98277767041486 L210.7377028207697,47.10269835604711 " style="stroke:#000000;stroke-width:0.25;"/>
            <!-- Line -->
            <path d="M179.82403635659813,56.98277767041486 L147.7573325892804,61.98250276439106 " style="stroke:#000000;stroke-width:0.25;"/>
            <!-- Line -->
            <path d="M166.36122908405528,1.8474111129762605e-13 L154.65776614371862,30.270442625115578 " style="stroke:#000000;stroke-width:0.25;"/>
            <!-- Line -->
            <path d="M147.7573325892804,61.98250276439106 L154.65776614371862,30.270442625115578 " style="stroke:#000000;stroke-width:0.25;"/>
            <!-- Line -->
            <path d="M210.7377028207697,47.10269835604711 L190.37446199378888,21.831980824907923 " style="stroke:#000000;stroke-width:0.25;"/>
            <!-- Line -->
            <path d="M179.82403635659813,56.982777670414876 L190.37446199378888,21.83198082490793 " style="stroke:#000000;stroke-width:0.25;"/>
        </g>
        <!-- Block Reference: face / entities: 12 -->
        <g>
            <!-- Line -->
            <path d="M179.82403635659813,56.98277767041512 L200.57470630432718,87.25322029553071 " style="stroke:#000000;stroke-width:0.25;"/>
            <!-- Line -->
            <path d="M179.82403635659813,56.98277767041514 L200.57470630432718,87.25322029553072 " style="stroke:#000000;stroke-width:0.25;"/>
            <!-- Line -->
            <path d="M179.82403635659813,56.98277767041514 L163.98439903331325,90.0886063032526 " style="stroke:#000000;stroke-width:0.25;"/>
            <!-- Line -->
            <path d="M200.57470630432718,87.25322029553071 L163.98439903331325,90.0886063032526 " style="stroke:#000000;stroke-width:0.25;"/>
            <!-- Line -->
            <path d="M163.98439903331325,90.0886063032526 L179.82403635659813,56.98277767041512 " style="stroke:#000000;stroke-width:0.25;"/>
            <!-- Line -->
            <path d="M200.57470630432712,87.25322029553064 L212.278169244664,56.9827776704151 " style="stroke:#000000;stroke-width:0.25;"/>
            <!-- Line -->
            <path d="M163.98439903331337,90.08860630325253 L184.34763986029415,115.35932383439172 " style="stroke:#000000;stroke-width:0.25;"/>
            <!-- Line -->
            <path d="M163.98439903331337,90.08860630325253 L147.75733258928048,61.98250276439134 " style="stroke:#000000;stroke-width:0.25;"/>
            <!-- Line -->
            <path d="M212.278169244664,56.9827776704151 L179.82403635659819,56.98277767041518 " style="stroke:#000000;stroke-width:0.25;"/>
            <!-- Line -->
            <path d="M147.75733258928048,61.98250276439134 L179.82403635659819,56.98277767041518 " style="stroke:#000000;stroke-width:0.25;"/>
            <!-- Line -->
            <path d="M184.34763986029415,115.35932383439172 L200.57470630432715,87.25322029553067 " style="stroke:#000000;stroke-width:0.25;"/>
            <!-- Line -->
            <path d="M163.98439903331337,90.08860630325255 L200.57470630432712,87.25322029553067 " style="stroke:#000000;stroke-width:0.25;"/>
        </g>
        <!-- Block Reference: face / entities: 12 -->
        <g>
            <!-- Line -->
            <path d="M143.23372908558426,120.35904892836759 L163.9843990333134,150.62949155348312 " style="stroke:#000000;stroke-width:0.25;"/>
            <!-- Line -->
            <path d="M143.23372908558426,120.3590489283676 L163.98439903331342,150.62949155348312 " style="stroke:#000000;stroke-width:0.25;"/>
            <!-- Line -->
            <path d="M143.23372908558426,120.3590489283676 L127.39409176229951,153.46487756120513 " style="stroke:#000000;stroke-width:0.25;"/>
            <!-- Line -->
            <path d="M163.9843990333134,150.62949155348312 L127.39409176229951,153.46487756120513 " style="stroke:#000000;stroke-width:0.25;"/>
            <!-- Line -->
            <path d="M127.39409176229951,153.46487756120513 L143.23372908558426,120.35904892836759 " style="stroke:#000000;stroke-width:0.25;"/>
            <!-- Line -->
            <path d="M163.98439903331337,150.62949155348304 L175.68786197365014,120.35904892836756 " style="stroke:#000000;stroke-width:0.25;"/>
            <!-- Line -->
            <path d="M127.39409176229955,153.46487756120504 L147.7573325892804,178.73559509234417 " style="stroke:#000000;stroke-width:0.25;"/>
            <!-- Line -->
            <path d="M127.39409176229955,153.46487756120504 L111.16702531826661,125.35877402234387 " style="stroke:#000000;stroke-width:0.25;"/>
            <!-- Line -->
            <path d="M175.68786197365014,120.35904892836756 L143.23372908558432,120.35904892836766 " style="stroke:#000000;stroke-width:0.25;"/>
            <!-- Line -->
            <path d="M111.16702531826661,125.35877402234387 L143.23372908558432,120.35904892836766 " style="stroke:#000000;stroke-width:0.25;"/>
            <!-- Line -->
            <path d="M147.7573325892804,178.73559509234417 L163.9843990333134,150.62949155348306 " style="stroke:#000000;stroke-width:0.25;"/>
            <!-- Line -->
            <path d="M127.39409176229955,153.46487756120504 L163.98439903331337,150.62949155348304 " style="stroke:#000000;stroke-width:0.25;"/>
        </g>
        <!-- Block Reference: face / entities: 12 -->
        <g>
            <!-- Line -->
            <path d="M237.16501357534096,90.08860630325219 L216.41434362761174,120.35904892836766 " style="stroke:#000000;stroke-width:0.25;"/>
            <!-- Line -->
            <path d="M237.16501357534096,90.0886063032522 L216.41434362761174,120.35904892836768 " style="stroke:#000000;stroke-width:0.25;"/>
            <!-- Line -->
            <path d="M237.16501357534096,90.0886063032522 L200.57470630432704,87.25322029553016 " style="stroke:#000000;stroke-width:0.25;"/>
            <!-- Line -->
            <path d="M216.41434362761174,120.35904892836766 L200.57470630432704,87.25322029553016 " style="stroke:#000000;stroke-width:0.25;"/>
            <!-- Line -->
            <path d="M200.57470630432704,87.25322029553016 L237.16501357534096,90.08860630325219 " style="stroke:#000000;stroke-width:0.25;"/>
            <!-- Line -->
            <path d="M216.4143436276118,120.35904892836759 L248.8684765156778,120.35904892836757 " style="stroke:#000000;stroke-width:0.25;"/>
            <!-- Line -->
            <path d="M200.57470630432712,87.25322029553016 L184.3476398602941,115.35932383439126 " style="stroke:#000000;stroke-width:0.25;"/>
            <!-- Line -->
            <path d="M200.57470630432712,87.25322029553016 L220.93794713130808,61.98250276439107 " style="stroke:#000000;stroke-width:0.25;"/>
            <!-- Line -->
            <path d="M248.8684765156778,120.35904892836757 L237.1650135753409,90.08860630325226 " style="stroke:#000000;stroke-width:0.25;"/>
            <!-- Line -->
            <path d="M220.93794713130808,61.98250276439107 L237.1650135753409,90.08860630325226 " style="stroke:#000000;stroke-width:0.25;"/>
            <!-- Line -->
            <path d="M184.3476398602941,115.35932383439126 L216.41434362761177,120.35904892836763 " style="stroke:#000000;stroke-width:0.25;"/>
            <!-- Line -->
            <path d="M200.57470630432712,87.25322029553016 L216.41434362761177,120.35904892836761 " style="stroke:#000000;stroke-width:0.25;"/>
        </g>
        <!-- Block Reference: face / entities: 12 -->
        <g>
            <!-- Line -->
            <path d="M90.80378449128567,90.0886063032521 L70.05311454355643,120.35904892836757 " style="stroke:#000000;stroke-width:0.25;"/>
            <!-- Line -->
            <path d="M90.80378449128565,90.08860630325212 L70.05311454355643,120.3590489283676 " style="stroke:#000000;stroke-width:0.25;"/>
            <!-- Line -->
            <path d="M90.80378449128565,90.08860630325212 L54.213477220271734,87.25322029553007 " style="stroke:#000000;stroke-width:0.25;"/>
            <!-- Line -->
            <path d="M70.05311454355643,120.35904892836757 L54.213477220271734,87.25322029553007 " style="stroke:#000000;stroke-width:0.25;"/>
            <!-- Line -->
            <path d="M54.213477220271734,87.25322029553007 L90.80378449128567,90.0886063032521 " style="stroke:#000000;stroke-width:0.25;"/>
            <!-- Line -->
            <path d="M70.0531145435565,120.3590489283675 L102.5072474316225,120.35904892836749 " style="stroke:#000000;stroke-width:0.25;"/>
            <!-- Line -->
            <path d="M54.213477220271834,87.25322029553007 L37.9864107762388,115.35932383439118 " style="stroke:#000000;stroke-width:0.25;"/>
            <!-- Line -->
            <path d="M54.213477220271834,87.25322029553007 L74.57671804725278,61.982502764390986 " style="stroke:#000000;stroke-width:0.25;"/>
            <!-- Line -->
            <path d="M102.5072474316225,120.35904892836749 L90.80378449128563,90.08860630325218 " style="stroke:#000000;stroke-width:0.25;"/>
            <!-- Line -->
            <path d="M74.57671804725278,61.982502764390986 L90.80378449128563,90.08860630325218 " style="stroke:#000000;stroke-width:0.25;"/>
            <!-- Line -->
            <path d="M37.9864107762388,115.35932383439118 L70.05311454355648,120.35904892836754 " style="stroke:#000000;stroke-width:0.25;"/>
            <!-- Line -->
            <path d="M54.21347722027183,87.25322029553007 L70.05311454355649,120.35904892836753 " style="stroke:#000000;stroke-width:0.25;"/>
        </g>
        <!-- Block Reference: face / entities: 12 -->
        <g>
            <!-- Line -->
            <path d="M8.296537059663251,30.270442625115408 L44.01323290973366,21.83198082490773 " style="stroke:#000000;stroke-width:0.25;"/>
            <!-- Line -->
            <path d="M8.296537059663272,30.270442625115404 L44.01323290973367,21.83198082490772 " style="stroke:#000000;stroke-width:0.25;"/>
            <!-- Line -->
            <path d="M8.296537059663272,30.270442625115404 L33.4628072725429,56.98277767041475 " style="stroke:#000000;stroke-width:0.25;"/>
            <!-- Line -->
            <path d="M44.01323290973366,21.83198082490773 L33.4628072725429,56.98277767041475 " style="stroke:#000000;stroke-width:0.25;"/>
            <!-- Line -->
            <path d="M33.4628072725429,56.98277767041475 L8.296537059663251,30.270442625115408 " style="stroke:#000000;stroke-width:0.25;"/>
            <!-- Line -->
            <path d="M44.01323290973356,21.831980824907745 L19.999999999999993,-3.552713678800501e-15 " style="stroke:#000000;stroke-width:0.25;"/>
            <!-- Line -->
            <path d="M33.46280727254283,56.98277767041468 L64.3764737367144,47.102698356046915 " style="stroke:#000000;stroke-width:0.25;"/>
            <!-- Line -->
            <path d="M33.46280727254283,56.98277767041468 L1.3961035052251107,61.98250276439087 " style="stroke:#000000;stroke-width:0.25;"/>
            <!-- Line -->
            <path d="M19.999999999999993,-3.552713678800501e-15 L8.296537059663331,30.27044262511539 " style="stroke:#000000;stroke-width:0.25;"/>
            <!-- Line -->
            <path d="M1.3961035052251107,61.98250276439087 L8.296537059663331,30.27044262511539 " style="stroke:#000000;stroke-width:0.25;"/>
            <!-- Line -->
            <path d="M64.3764737367144,47.102698356046915 L44.0132329097336,21.83198082490774 " style="stroke:#000000;stroke-width:0.25;"/>
            <!-- Line -->
            <path d="M33.46280727254284,56.982777670414684 L44.01323290973359,21.83198082490774 " style="stroke:#000000;stroke-width:0.25;"/>
        </g>
        <!-- Block Reference: face / entities: 12 -->
        <g>
            <!-- Line -->
            <path d="M33.46280727254283,56.98277767041471 L54.2134772202719,87.2532202955303 " style="stroke:#000000;stroke-width:0.25;"/>
            <!-- Line -->
            <path d="M33.46280727254285,56.982777670414734 L54.21347722027188,87.25322029553033 " style="stroke:#000000;stroke-width:0.25;"/>
            <!-- Line -->
            <path d="M33.46280727254285,56.982777670414734 L17.62316994925796,90.08860630325219 " style="stroke:#000000;stroke-width:0.25;"/>
            <!-- Line -->
            <path d="M54.2134772202719,87.2532202955303 L17.62316994925796,90.08860630325219 " style="stroke:#000000;stroke-width:0.25;"/>
            <!-- Line -->
            <path d="M17.62316994925796,90.08860630325219 L33.46280727254283,56.98277767041471 " style="stroke:#000000;stroke-width:0.25;"/>
            <!-- Line -->
            <path d="M54.21347722027182,87.25322029553024 L65.91694016060872,56.9827776704147 " style="stroke:#000000;stroke-width:0.25;"/>
            <!-- Line -->
            <path d="M17.623169949258063,90.08860630325213 L37.98641077623886,115.35932383439132 " style="stroke:#000000;stroke-width:0.25;"/>
            <!-- Line -->
            <path d="M17.623169949258063,90.08860630325213 L1.3961035052251773,61.98250276439094 " style="stroke:#000000;stroke-width:0.25;"/>
            <!-- Line -->
            <path d="M65.91694016060872,56.9827776704147 L33.46280727254288,56.98277767041478 " style="stroke:#000000;stroke-width:0.25;"/>
            <!-- Line -->
            <path d="M1.3961035052251773,61.98250276439094 L33.46280727254288,56.98277767041478 " style="stroke:#000000;stroke-width:0.25;"/>
            <!-- Line -->
            <path d="M37.98641077623886,115.35932383439132 L54.21347722027184,87.25322029553027 " style="stroke:#000000;stroke-width:0.25;"/>
            <!-- Line -->
            <path d="M17.62316994925806,90.08860630325213 L54.213477220271834,87.25322029553026 " style="stroke:#000000;stroke-width:0.25;"/>
        </g>
        <!-- Block Reference: face / entities: 12 -->
        <g>
            <!-- Line -->
            <path d="M362.7755727116672,120.35904892836777 L383.52624265939636,150.6294915534833 " style="stroke:#000000;stroke-width:0.25;"/>
            <!-- Line -->
            <path d="M362.7755727116672,120.35904892836778 L383.5262426593964,150.6294915534833 " style="stroke:#000000;stroke-width:0.25;"/>
            <!-- Line -->
            <path d="M362.7755727116672,120.35904892836778 L346.93593538838246,153.4648775612053 " style="stroke:#000000;stroke-width:0.25;"/>
            <!-- Line -->
            <path d="M383.52624265939636,150.6294915534833 L346.93593538838246,153.4648775612053 " style="stroke:#000000;stroke-width:0.25;"/>
            <!-- Line -->
            <path d="M346.93593538838246,153.4648775612053 L362.7755727116672,120.35904892836777 " style="stroke:#000000;stroke-width:0.25;"/>
            <!-- Line -->
            <path d="M383.5262426593963,150.6294915534832 L395.2297055997331,120.35904892836774 " style="stroke:#000000;stroke-width:0.25;"/>
            <!-- Line -->
            <path d="M346.9359353883825,153.46487756120524 L367.2991762153634,178.73559509234437 " style="stroke:#000000;stroke-width:0.25;"/>
            <!-- Line -->
            <path d="M346.9359353883825,153.46487756120524 L330.7088689443496,125.35877402234405 " style="stroke:#000000;stroke-width:0.25;"/>
            <!-- Line -->
            <path d="M395.2297055997331,120.35904892836774 L362.7755727116673,120.35904892836784 " style="stroke:#000000;stroke-width:0.25;"/>
            <!-- Line -->
            <path d="M330.7088689443496,125.35877402234405 L362.7755727116673,120.35904892836784 " style="stroke:#000000;stroke-width:0.25;"/>
            <!-- Line -->
            <path d="M367.2991762153634,178.73559509234437 L383.52624265939636,150.62949155348323 " style="stroke:#000000;stroke-width:0.25;"/>
            <!-- Line -->
            <path d="M346.9359353883825,153.46487756120524 L383.52624265939636,150.62949155348323 " style="stroke:#000000;stroke-width:0.25;"/>
        </g>
        <!-- Block Reference: face / entities: 12 -->
        <g>
            <!-- Line -->
            <path d="M227.8383806857461,30.27044262511518 L263.5550765358165,21.831980824907504 " style="stroke:#000000;stroke-width:0.25;"/>
            <!-- Line -->
            <path d="M227.83838068574613,30.270442625115177 L263.5550765358165,21.831980824907493 " style="stroke:#000000;stroke-width:0.25;"/>
            <!-- Line -->
            <path d="M227.83838068574613,30.270442625115177 L253.00465089862575,56.98277767041452 " style="stroke:#000000;stroke-width:0.25;"/>
            <!-- Line -->
            <path d="M263.5550765358165,21.831980824907504 L253.00465089862575,56.98277767041452 " style="stroke:#000000;stroke-width:0.25;"/>
            <!-- Line -->
            <path d="M253.00465089862575,56.98277767041452 L227.8383806857461,30.27044262511518 " style="stroke:#000000;stroke-width:0.25;"/>
            <!-- Line -->
            <path d="M263.5550765358164,21.831980824907518 L239.54184362608285,-2.3092638912203256e-13 " style="stroke:#000000;stroke-width:0.25;"/>
            <!-- Line -->
            <path d="M253.0046508986257,56.98277767041445 L283.91831736279727,47.10269835604669 " style="stroke:#000000;stroke-width:0.25;"/>
            <!-- Line -->
            <path d="M253.0046508986257,56.98277767041445 L220.93794713130796,61.982502764390645 " style="stroke:#000000;stroke-width:0.25;"/>
            <!-- Line -->
            <path d="M239.54184362608285,-2.3092638912203256e-13 L227.8383806857462,30.270442625115162 " style="stroke:#000000;stroke-width:0.25;"/>
            <!-- Line -->
            <path d="M220.93794713130796,61.982502764390645 L227.8383806857462,30.270442625115162 " style="stroke:#000000;stroke-width:0.25;"/>
            <!-- Line -->
            <path d="M283.91831736279727,47.10269835604669 L263.55507653581645,21.83198082490751 " style="stroke:#000000;stroke-width:0.25;"/>
            <!-- Line -->
            <path d="M253.0046508986257,56.98277767041446 L263.55507653581645,21.83198082490751 " style="stroke:#000000;stroke-width:0.25;"/>
        </g>
    </g>
</svg>
